\relax 
\providecommand\hyper@newdestlabel[2]{}
\@nameuse{bbl@beforestart}
\catcode `"\active 
\catcode `<\active 
\catcode `>\active 
\@nameuse{es@quoting}
\providecommand\HyperFirstAtBeginDocument{\AtBeginDocument}
\HyperFirstAtBeginDocument{\ifx\hyper@anchor\@undefined
\global\let\oldcontentsline\contentsline
\gdef\contentsline#1#2#3#4{\oldcontentsline{#1}{#2}{#3}}
\global\let\oldnewlabel\newlabel
\gdef\newlabel#1#2{\newlabelxx{#1}#2}
\gdef\newlabelxx#1#2#3#4#5#6{\oldnewlabel{#1}{{#2}{#3}}}
\AtEndDocument{\ifx\hyper@anchor\@undefined
\let\contentsline\oldcontentsline
\let\newlabel\oldnewlabel
\fi}
\fi}
\global\let\hyper@last\relax 
\gdef\HyperFirstAtBeginDocument#1{#1}
\providecommand*\HyPL@Entry[1]{}
\HyPL@Entry{0<</S/D>>}
\babel@aux{french}{}
\babel@aux{french}{}
\HyPL@Entry{1<</S/D>>}
\babel@aux{french}{}
\@writefile{toc}{\contentsline {subsection}{Lorem ipsum}{2}{section*.2}\protected@file@percent }
\newlabel{lorem-ipsum}{{}{2}{Lorem ipsum}{section*.2}{}}
\@writefile{toc}{\contentsline {subsubsection}{Lorem ipsum}{2}{section*.3}\protected@file@percent }
\newlabel{lorem-ipsum-1}{{}{2}{Lorem ipsum}{section*.3}{}}
\@writefile{toc}{\contentsline {subsection}{Lorem ipsum}{2}{section*.4}\protected@file@percent }
\newlabel{lorem-ipsum-2}{{}{2}{Lorem ipsum}{section*.4}{}}
\newlabel{bibliographie}{{}{2}{Bibliographie}{section*.5}{}}
\@writefile{toc}{\contentsline {subsection}{Bibliographie}{2}{section*.5}\protected@file@percent }
