\babel@toc {french}{}
\babel@toc {french}{}
\babel@toc {french}{}
\contentsline {subsection}{Lorem ipsum}{2}{section*.2}%
\contentsline {subsubsection}{Lorem ipsum}{2}{section*.3}%
\contentsline {subsection}{Lorem ipsum}{2}{section*.4}%
\contentsline {subsection}{Bibliographie}{2}{section*.5}%
